????????, ????????? ??? (??), ??????? ??? ?????????? (??), ???????????? ??? ?????????? (??), ??????? ??? ??????? (??), ???????????? ??? ??????? (??)
RANDOM, 79919, 3262, 26309, 5051, 11240
ROUND_ROBIN, 63217, 1290, 10103, 3365, 9083
MIN_EXECUTION, 456353, 791, 2177, 86163, 338129
MIN_QUEUE, 432274, 748, 1419, 79448, 314596
K_MEANS, 75445, 86, 1007, 20835, 23698
RANDOM, 70399, 4095, 17115, 6952, 16835
ROUND_ROBIN, 61388, 1616, 8826, 4255, 11489
MIN_EXECUTION, 89534, 77, 587, 21224, 48613
MIN_QUEUE, 87314, 72, 603, 19579, 43958
K_MEANS, 71575, 81, 1150, 18358, 26319
RANDOM, 73238, 3060, 20620, 5683, 15886
ROUND_ROBIN, 62262, 1147, 9128, 3785, 11226
MIN_EXECUTION, 397560, 679, 1228, 61212, 232601
MIN_QUEUE, 390838, 663, 1287, 59840, 225566
K_MEANS, 77720, 71, 853, 24695, 32465
RANDOM, 67241, 3266, 15351, 5910, 14388
ROUND_ROBIN, 55950, 390, 3372, 2299, 7575
MIN_EXECUTION, 355804, 594, 970, 54677, 197530
MIN_QUEUE, 363087, 606, 1358, 56899, 206058
K_MEANS, 66652, 93, 922, 14735, 18305
RANDOM, 68573, 3861, 16653, 5932, 26933
ROUND_ROBIN, 60891, 1355, 7306, 2893, 10664
MIN_EXECUTION, 517374, 913, 1923, 96677, 363283
MIN_QUEUE, 519446, 910, 1579, 96959, 359403
K_MEANS, 76378, 86, 1215, 21265, 28558
RANDOM, 78791, 4436, 25733, 6871, 24543
ROUND_ROBIN, 61100, 1053, 7150, 3090, 10163
MIN_EXECUTION, 387845, 654, 1479, 69036, 278553
MIN_QUEUE, 402602, 683, 1148, 74067, 325870
K_MEANS, 80878, 81, 1113, 26542, 31888
RANDOM, 77591, 3485, 24184, 8637, 19130
ROUND_ROBIN, 60593, 517, 6844, 5780, 10136
MIN_EXECUTION, 359254, 589, 788, 62338, 253170
MIN_QUEUE, 368883, 615, 901, 65327, 272917
K_MEANS, 73872, 58, 811, 23530, 30460
RANDOM, 66452, 2611, 18236, 6301, 13754
ROUND_ROBIN, 58093, 457, 4674, 4184, 9374
MIN_EXECUTION, 756667, 1361, 2036, 105374, 533289
MIN_QUEUE, 734331, 1317, 1731, 100910, 510882
K_MEANS, 78222, 66, 824, 25324, 32535
RANDOM, 72433, 3137, 19150, 6315, 17026
ROUND_ROBIN, 60401, 1223, 7492, 3954, 10391
MIN_EXECUTION, 508310, 883, 1542, 99068, 417788
MIN_QUEUE, 508181, 882, 1408, 98880, 398009
K_MEANS, 75338, 80, 810, 22262, 26742
RANDOM, 69455, 2926, 16571, 4507, 8442
ROUND_ROBIN, 59052, 814, 6213, 2617, 7576
MIN_EXECUTION, 376652, 625, 1412, 62000, 247111
MIN_QUEUE, 385796, 647, 1159, 65020, 248224
K_MEANS, 72825, 70, 818, 19704, 23634
